# Blender MTL File: 'kathoga.blend'
# Material Count: 2

newmtl kathoga
Ns 96.078431
Ka 1.000000 1.000000 1.000000
Kd 0.640000 0.640000 0.640000
Ks 0.500000 0.500000 0.500000
Ke 0.000000 0.000000 0.000000
Ni 1.000000
d 0.000000
illum 0
map_Kd kathoga.png
map_d kathoga.png

newmtl kathoga_kathoga
Ns 96.078431
Ka 1.000000 1.000000 1.000000
Kd 0.640000 0.640000 0.640000
Ks 0.500000 0.500000 0.500000
Ke 0.000000 0.000000 0.000000
Ni 1.000000
d 0.000000
illum 0
map_Kd kathoga.png
map_d kathoga.png
