{
  "result": {
    "item": "lycanitesmobs:insecttreat",
    "count": 4
  },
  "pattern": [
    " MM",
    "BBM",
    " MM"
  ],
  "type": "minecraft:ore_shaped",
  "key": {
    "B": {
      "item": "minecraft:bone"
    },
    "M": {
      "item": "minecraft:sugar"
    }
  }
}