{
  "result": {
    "item": "lycanitesmobs:anthroniantreat",
    "count": 4
  },
  "pattern": [
    " MM",
    "BBM",
    " MM"
  ],
  "type": "forge:ore_shaped",
  "key": {
    "B": {
      "item": "minecraft:bone"
    },
    "M": {
	  "type": "forge:ore_dict",
      "ore": "listAllporkcooked"
    }
  }
}